<?xml version="1.0" encoding="utf-8"?>
<!-- This URDF was automatically created by SolidWorks to URDF Exporter! Originally created by Stephen Brawner (brawner@gmail.com) 
     Commit Version: 1.5.1-0-g916b5db  Build Version: 1.5.7152.31018
     For more information, please see http://wiki.ros.org/sw_urdf_exporter -->
<robot
    name="tx09_urdf">
  <link name="world"/>
  <joint name="fixed_to_world" type="fixed">
    <parent link="world"/>
    <child link="base_link"/>
  </joint>
  <link
    name="base_link">
    <inertial>
      <origin
        xyz="9.75284786274601E-05 0.000344082069274024 0.0135805215216981"
        rpy="0 0 0" />
      <mass
        value="0.334883475359554" />
      <inertia
        ixx="0.000542051711871185"
        ixy="2.23116462852291E-06"
        ixz="3.08847539509577E-07"
        iyy="0.000594985226428507"
        iyz="1.08086404146777E-06"
        izz="0.00111420144010483" />
    </inertial>
    <visual>
      <origin
        xyz="0 0 0"
        rpy="0 0 0" />
      <geometry>
        <mesh
          filename="package://telexistence_description/meshes_tx09/base_link.STL" />
      </geometry>
      <material
        name="">
        <color
          rgba="0.752941176470588 0.752941176470588 0.752941176470588 1" />
      </material>
    </visual>
  </link>
  <link
    name="TRUNK_S1_Z">
    <inertial>
     <origin
        xyz="-0.00083096 -0.0084363358 0.04469806"
        rpy="0 0 0" />
      <mass
        value="1.52981959" />
      <inertia
        ixx="0.00971099"
        ixy="-0.00016827"
        ixz="-7.6E-06"
        iyy="0.00453276"
        iyz="0.00011921"
        izz="0.00963308" />
    </inertial>
    <visual>
      <origin
        xyz="0 0 0"
        rpy="0 0 0" />
      <geometry>
        <mesh
          filename="package://telexistence_description/meshes_tx09/TRUNK_S1_Z.STL" />
      </geometry>
      <material
        name="">
        <color
          rgba="0.752941176470588 0.752941176470588 0.752941176470588 1" />
      </material>
    </visual>
  </link>
  <joint
    name="TRUNK_S1_Z_JOINT"
    type="revolute">
    <origin
      xyz="0 0 0.037" />
    <!-- <origin
      xyz="0 0 0.037"
      rpy="0 0 0" /> -->
    <parent
      link="base_link" />
    <child
      link="TRUNK_S1_Z" />
    <!-- <axis xyz="0 0 1" /> -->
    <axis xyz="0 0 1" />
    <dynamics damping="0.7"/>
    <limit effort="1000.0" lower="-1.91986" upper="1.91986" velocity="1.57079632679"/>
    <!-- -110  110 -->
  </joint>
  <link
    name="TRUNK_S1_Y">
    <inertial>
      <origin
        xyz="-0.00236403661615893 0.00261274149208284 -0.00298535765694991 "
        rpy="0 0 0" />
      <mass
        value="1.52282236871515" />
      <inertia
        ixx="0.00232187"
        ixy="0.00046217"
        ixz="8.962E-05"
        iyy="0.00234304"
        iyz="8.642E-05"
        izz="0.00253918" />
    </inertial>
    <visual>
      <origin
        xyz="0 0 0"
        rpy="-1.5707963267949 -1.5707963267949 0" />
      <geometry>
        <mesh
          filename="package://telexistence_description/meshes_tx09/TRUNK_S1_Y.STL" />
      </geometry>
      <material
        name="">
        <color
          rgba="0.752941176470588 0.752941176470588 0.752941176470588 1" />
      </material>
    </visual>
  </link>
  <joint
    name="TRUNK_S1_Y_JOINT"
    type="revolute">
    <origin
      xyz="0 0 0.0950000000000038" />
<!--     <origin
      xyz="0 0 0.0950000000000038"
      rpy="-1.5707963267949 -1.5707963267949 0" /> -->
    <parent
      link="TRUNK_S1_Z" />
    <child
      link="TRUNK_S1_Y" />
    <!-- <axis xyz="0 0 1" /> -->
    <axis xyz="0 1 0"/>
    <dynamics damping="0.7"/>
    <limit effort="1000.0" lower="-0.174533" upper="0.523599" velocity="0.174533"/>
    <!-- -10  30 -->
  </joint>
  <link
    name="TRUNK_S1_X">
    <inertial>
      <origin
        xyz="-0.00479211436084438 0.00378855895500106 0.132726134865147"
        rpy="0 0 0" />
      <mass
        value="2.22455758825744" />
      <inertia
    ixx="0.01346962"
    ixy="1E-3"
          ixz="1E-3"
          iyy="-0.01524987"
          iyz="-1E-3"
          izz="0.00758383"/>
        <!-- ixx="0.01346962"   -->
        <!-- ixy="4.303E-05"    -->
        <!-- ixz="0.00085491" -->
        <!-- iyy="-0.01524987" -->
        <!-- iyz="-6.24E-05"      -->
        <!-- izz="0.00758383"    /> -->
    </inertial>
    <visual>
      <origin
        xyz="0 0 0"
        rpy="-3.14159265359 -1.5707963267949 0" />
      <geometry>
        <mesh
          filename="package://telexistence_description/meshes_tx09/TRUNK_S1_X.STL" />
      </geometry>
      <material
        name="">
        <color
          rgba="0.752941176470588 0.752941176470588 0.752941176470588 1" />
      </material>
    </visual>
  </link>
  <joint
    name="TRUNK_S1_X_JOINT"
    type="revolute">
    <origin xyz="0 0 0" />
    <!-- <origin
      xyz="0 0 0"
      rpy="-1.5707963267949 0 0" /> -->
    <parent
      link="TRUNK_S1_Y" />
    <child
      link="TRUNK_S1_X" />
    <!-- <axis xyz="0 0 1" /> -->
    <axis xyz="1 0 0"/>
    <dynamics damping="0.7"/>
    <limit effort="1000.0" lower="-0.349065850399" upper="0.349065850399" velocity="1.0471975512"/>
    <!-- -20  20 -->
  </joint>
  <link
    name="TRUNK_S2_Y">
    <inertial>
      <origin
        xyz="-0.00208200948433451 -0.00128511552683045 0.215736406082074 "
        rpy="0 0 0" />
      <mass
        value="4.33756993559804" />
      <inertia
    ixx="0.0219730086247846"
    ixy="1E-3"
          ixz="0.0017970225869103"
          iyy="0.018924474236361"
          iyz="1E-3"
          izz="0.0143222190221165"/>

        <!-- ixx="0.0219730086247846"  -->
        <!-- ixy="5.09575249665556E-06"   -->
        <!-- ixz="0.0017970225869103"   -->
        <!-- iyy="0.018924474236361"   -->
        <!-- iyz="1.93076922777899E-05"  -->
        <!-- izz="0.0143222190221165"    /> -->
    </inertial>
    <visual>
      <origin
        xyz="0 0 0"
        rpy="-1.5707963267949 -1.5707963267949 0" />
      <geometry>
        <mesh
          filename="package://telexistence_description/meshes_tx09/TRUNK_S2_Y.STL" />
      </geometry>
      <material
        name="">
        <color
          rgba="0.752941176470588 0.752941176470588 0.752941176470588 1" />
      </material>
    </visual>
  </link>
  <joint
    name="TRUNK_S2_Y_JOINT"
    type="revolute">
    <origin
      xyz="0 0 0.209999999999996"/>
    <!-- <origin
      xyz="0.209999999999996 0 0"
      rpy="1.5707963267949 0 0" /> -->
    <parent
      link="TRUNK_S1_X" />
    <child
      link="TRUNK_S2_Y" />
    <!-- <axis xyz="0 0 1" /> -->
    <axis xyz="0 1 0"/>
    <dynamics damping="0.7"/>
    <limit effort="1000.0" lower="-0.349065850399" upper="0.523599" velocity="0.174533"/>
    <!-- -20  30 -->
  </joint>
  <link
    name="LARM_A1_Y">
    <inertial>
      <origin
        xyz="0.00299123166746151 -0.0536305878658216 0.0215488359311832"
        rpy="0 0 0" />
      <mass
        value="1.0660045783721" />
      <inertia
        ixx="-0.00238113" 
        ixy="3.594E-05"   
        ixz="4.895E-05"  
        iyy="0.00253838"  
        iyz="1.087E-05"  
        izz="-0.00222503"/>
    </inertial>
    <visual>
      <origin
        xyz="0 0 0"
        rpy="-1.5707963267949 1.5707963267949 0" />
      <geometry>
        <mesh
          filename="package://telexistence_description/meshes_tx09/LARM_A1_Y.STL" />
      </geometry>
      <material
        name="">
        <color
          rgba="0.752941176470588 0.752941176470588 0.752941176470588 1" />
      </material>
    </visual>
  </link>
  <joint
    name="LARM_A1_Y_JOINT"
    type="revolute">
    <origin
      xyz="0 0.2 0.2695 "/>
    <!-- <origin
      xyz="0.2695 0 0.2"
      rpy="0 0 3.14159265358979" /> -->
    <parent
      link="TRUNK_S2_Y" />
    <child
      link="LARM_A1_Y" />
    <!-- <axis xyz="0 0 -1" /> -->
    <!-- <axis xyz="0 0 1" /> -->
    <axis xyz="0 1 0"/>
    <dynamics damping="0.7"/>
    <limit effort="1000.0" lower="-2.61799387799" upper="0.785398163397" velocity="3.14159265359"/>
    <!-- -150  45 -->
  </joint>
  <link
    name="LARM_A1_X">
    <inertial>
      <origin
        xyz="0.00083231 0.01286239 -0.07693645 "
        rpy="0 0 0" />
      <mass
        value="0.74874004" />
      <inertia
        ixx="0.00254405"  
        ixy="-1.462E-05"  
        ixz="-6.007E-05"  
        iyy="0.00243757"  
        iyz="-1.01939E-05" 
        izz="0.00062201" />
    </inertial>
    <visual>
      <origin
        xyz="0 0 0"
        rpy="1.5707963267949 0 1.5707963267949" />
      <geometry>
        <mesh
          filename="package://telexistence_description/meshes_tx09/LARM_A1_X.STL" />
      </geometry>
      <material
        name="">
        <color
          rgba="0.752941176470588 0.752941176470588 0.752941176470588 1" />
      </material>
    </visual>
  </link>
  <joint
    name="LARM_A1_X_JOINT"
    type="revolute">
    <origin
      xyz="0 0 0"/>
    <!-- <origin
      xyz="0 0 0"
      rpy="1.5707963267949 -1.5707963267949 0" /> -->
    <parent
      link="LARM_A1_Y" />
    <child
      link="LARM_A1_X" />
    <!-- <axis xyz="0 0 1" /> -->
    <axis xyz="1 0 0"/>
    <dynamics damping="0.7"/>
    <limit effort="1000.0" lower="-0.523598775598" upper="1.91986217719" velocity="3.14159265359"/>
    <!-- -30  110 -->
  </joint>
  <link
    name="LARM_A2_Z">
    <inertial>
      <origin
        xyz="-0.00507904 -0.00010172 0.04207637"
        rpy="0 0 0" />
      <mass
        value="0.50985428" />
      <inertia
        ixx="0.00085645"
        ixy="-1.002E-05"
        ixz="-7.77E-06"
        iyy="0.00086118"
        iyz="4.477E-05"
        izz="0.00022045" />
    </inertial>
    <visual>
      <origin
        xyz="0 0 0"
        rpy="0 0 0" />
      <geometry>
        <mesh
          filename="package://telexistence_description/meshes_tx09/LARM_A2_Z.STL" />
      </geometry>
      <material
        name="">
        <color
          rgba="0.752941176470588 0.752941176470588 0.752941176470588 1" />
      </material>
    </visual>
  </link>
  <joint
    name="LARM_A2_Z_JOINT"
    type="revolute">
    <origin
      xyz="0 0 -0.284"/>
    <!-- <origin
      xyz="0 -0.284 0"
      rpy="-1.5707963267949  -1.5707963267949 0" /> -->
    <parent
      link="LARM_A1_X" />
    <child
      link="LARM_A2_Z" />
    <!-- <axis xyz="0 0 -1" /> -->
    <axis xyz="0 0 1"/>
    <dynamics damping="0.7"/>
    <limit effort="1000.0" lower="-2.61799387799" upper="0.610865238198" velocity="3.14159265359"/>
    <!-- -150  35 -->
  </joint>
  <link
    name="LARM_A3_Y">
    <inertial>
      <origin
        xyz="-0.01170166 0.00149962 -0.07202349"
        rpy="0 0 0 " />
      <mass
        value="0.35257635" />
      <inertia
    ixx="-0.0013555"
    ixy="-1E-3"
          ixz="-1E-3"
          iyy="0.00132562"
          iyz="-1E-3"
          izz="-1E-3"/>
        <!-- ixx="-0.0013555"  "0.00034317" -->
        <!-- ixy="-6.58E-06"   "-7.916E-05" -->
        <!-- ixz="-7.916E-05"  "1.875E-05" -->
        <!-- iyy="0.00132562"  "0.0013555" -->
        <!-- iyz="-1.875E-05"  "6.58E-06" -->
        <!-- izz="-0.00034317"   "0.00132562" /> -->
    </inertial>
    <visual>
      <origin
        xyz="0 0 0"
        rpy="-1.5707963267949 1.5707963267949 0" />
      <geometry>
        <mesh
          filename="package://telexistence_description/meshes_tx09/LARM_A3_Y.STL" />
      </geometry>
      <material
        name="">
        <color
          rgba="0.752941176470588 0.752941176470588 0.752941176470588 1" />
      </material>
    </visual>
  </link>
  <joint
    name="LARM_A3_Y_JOINT"
    type="revolute">
    <origin
      xyz="0 0 0"/>
    <!-- <origin
      xyz="0 0 0"
      rpy="-1.5707963267949 1.5707963267949 0" /> -->
    <parent
      link="LARM_A2_Z" />
    <child
      link="LARM_A3_Y" />
    <!-- <axis xyz="0 0 1" /> -->
    <axis xyz="0 1 0"/>
    <dynamics damping="0.7"/>
    <limit effort="1000.0" lower="-2.61799387799" upper="0.0" velocity="3.14159265359"/>
    <!-- -150  0 -->
  </joint>
  <link
    name="LARM_A4_Z">
    <inertial>
      <origin
        xyz="-0.00019297 0.0005012 -0.03507751"
        rpy="0 0 0" />
      <mass
        value="0.131998666591159" />
      <inertia
        ixx="0.0001946"
        ixy="-3.6E-07"
        ixz="3.5E-07"
        iyy="-0.00018761"
        iyz="-1.6E-07"
        izz="-0.00011608" />
    </inertial>
    <visual>
      <origin
        xyz="0 0 0"
        rpy="3.14159265359 0 0" />
      <geometry>
        <mesh
          filename="package://telexistence_description/meshes_tx09/LARM_A4_Z.STL" />
      </geometry>
      <material
        name="">
        <color
          rgba="0.752941176470588 0.752941176470588 0.752941176470588 1" />
      </material>
    </visual>
  </link>
  <joint
    name="LARM_A4_Z_JOINT"
    type="revolute">
    <origin
      xyz="0 0 -0.1482"/>
    <!-- <origin
      xyz="0.1482 0 0.00030000000000005"
      rpy="-1.5707963267949 0 -1.5707963267949" /> -->
    <parent
      link="LARM_A3_Y" />
    <child
      link="LARM_A4_Z" />
    <axis xyz="0 0 1" />
    <!-- <axis xyz="0 0 1"/> -->
    <dynamics damping="0.7"/>
    <limit effort="1000.0" lower="-1.57079632679" upper="1.57079632679" velocity="3.14159265359"/>
    <!-- -90  90 -->
  </joint>
  <link
    name="LARM_A5_Y">
    <inertial>
      <origin
        xyz="0.00431876 -0.00421251 -0.00023267"
        rpy="0 0 0" />
      <mass
        value="0.19557984" />
      <inertia
        ixx="-8.133E-05" 
        ixy="4.54E-06"  
        ixz="2.82E-06"  
        iyy="8.219E-05"  
        iyz="3.52E-06"  
        izz="-5.356E-05"/>
    </inertial>
    <visual>
      <origin
        xyz="0 0 0"
        rpy="-1.57079632679 1.57079632679 0" />
      <geometry>
        <mesh
          filename="package://telexistence_description/meshes_tx09/LARM_A5_Y.STL" />
      </geometry>
      <material
        name="">
        <color
          rgba="0.752941176470588 0.752941176470588 0.752941176470588 1" />
      </material>
    </visual>
  </link>
  <joint
    name="LARM_A5_Y_JOINT"
    type="revolute">
    <origin
      xyz="0 0 -0.1018"/>
    <!-- <origin
      xyz="0 0 0.1018"
      rpy="1.5824115027804 -1.5707963267949 0" /> -->
    <parent
      link="LARM_A4_Z" />
    <child
      link="LARM_A5_Y" />
    <!-- <axis xyz="0 0 1" /> -->
    <axis xyz="0 1 0"/>
    <dynamics damping="0.7"/>
    <limit effort="1000.0" lower="-0.349065850399" upper="1.0471975512" velocity="3.14159265359"/>
    <!-- -20  60 -->
  </joint>
  <link
    name="LARM_A5_X">
    <inertial>
      <origin
        xyz="-0.000509367994703625 -0.00438540527518397 -0.0286504482363348"
        rpy="0 0 0" />
      <mass
        value="0.0568166804776515" />
      <inertia
    ixx="1E-3"
    ixy="1E-3"
          ixz="-1E-3"
          iyy="1E-3"
          iyz="1E-3"
          izz="-1E-3"/>
        <!-- ixx="3.292E-05" "4.853E-05" -->
        <!-- ixy="3.5E-07" "-2.32E-06" -->
        <!-- ixz="-2.8E-07" -->
        <!-- iyy="5.566E-05" -->
        <!-- iyz="2.32E-06"  "3.5E-07" -->
        <!-- izz="-4.853E-05"  "3.292E-05" /> -->
    </inertial>
    <visual>
      <origin
        xyz="0 0 0"
        rpy="3.14159265359 1.57079632679 0" />
      <geometry>
        <mesh
          filename="package://telexistence_description/meshes_tx09/LARM_A5_X_DUMMY_HAND.STL" />
      </geometry>
      <material
        name="">
        <color
          rgba="0.752941176470588 0.752941176470588 0.752941176470588 1" />
      </material>
    </visual>
  </link>
  <joint
    name="LARM_A5_X_JOINT"
    type="revolute">
    <origin
      xyz="0 0 0"/>
    <!-- <origin
      xyz="0 0 0"
      rpy="1.5707963267949 0 0" /> -->
    <parent
      link="LARM_A5_Y" />
    <child
      link="LARM_A5_X" />
    <!-- <axis xyz="0 0 1" /> -->
    <axis xyz="1 0 0"/>
    <dynamics damping="0.7"/>
    <limit effort="1000.0" lower="-1.3962634016" upper="0.785398163397" velocity="3.14159265359"/>
    <!-- -80  45 -->
  </joint>
  <link name="LHAND">
      <visual>
      <origin
        xyz="0 0 0"
        rpy="0 0 0" />
      <geometry>
        <mesh
          filename="package://telexistence_description/meshes_tx09/DUMMY_CYLINDER.STL" scale="0.0002 0.0002 0.0002"/>
      </geometry>
      <material
        name="">
        <color
          rgba="0.75 0.75 0.75 1" />
      </material>
    </visual>
  </link>
  <joint name="LHAND_JOINT" type="fixed">
    <origin xyz="0 -0.1 -0.16" />
    <parent link="LARM_A5_X" />
    <child link="LHAND" />
  </joint>
  <link
    name="RARM_A1_Y">
    <inertial>
      <origin
        xyz="-0.00299122611218183 0.0536305893973569 0.021548836380843"
        rpy="0 0 0" />
      <mass
        value="1.06600446037794" />
      <inertia
        ixx="-0.00238145"  
        ixy="3.576E-05" 
        ixz="-4.91E-05"  
        iyy="0.00253869" 
        iyz="-1.071E-05"  
        izz="-0.0022254"/>
    </inertial>
    <visual>
      <origin
        xyz="0 0 0"
        rpy="-1.5707963267949 1.5707963267949 0" />
      <geometry>
        <mesh
          filename="package://telexistence_description/meshes_tx09/RARM_A1_Y.STL" />
      </geometry>
      <material
        name="">
        <color
          rgba="0.752941176470588 0.752941176470588 0.752941176470588 1" />
      </material>
    </visual>
  </link>
  <joint
    name="RARM_A1_Y_JOINT"
    type="revolute">
    <origin
      xyz="0 -0.2 0.2695"/>
<!--     <origin
      xyz="0.2695 0 -0.2"
      rpy="0 0 3.14159265358979" /> -->
    <parent
      link="TRUNK_S2_Y" />
    <child
      link="RARM_A1_Y" />
    <!-- <axis xyz="0 0 -1" /> -->
    <!-- <axis xyz="0 0 1" /> -->
    <axis xyz="0 1 0"/>
    <dynamics damping="0.7"/>
    <limit effort="1000.0" lower="-2.61799387799" upper="0.785398163397" velocity="3.14159265359"/>
    <!-- -150  45 -->    
  </joint>
  <link
    name="RARM_A1_X">
    <inertial>
      <origin
        xyz="-0.00083231 -0.01286239 -0.07693645"
        rpy="0 0 0" />
      <mass
        value="0.74874004" />
      <inertia
        ixx="0.00254405"  
        ixy="-1.462E-05"  
        ixz="6.007E-05" 
        iyy= "0.00243757" 
        iyz="-1.019E-05"  
        izz="0.00062201"/>
    </inertial>
    <visual>
      <origin
        xyz="0 0 0"
        rpy="1.5707963267949 0 1.5707963267949" />
      <geometry>
        <mesh
          filename="package://telexistence_description/meshes_tx09/RARM_A1_X.STL" />
      </geometry>
      <material
        name="">
        <color
          rgba="0.752941176470588 0.752941176470588 0.752941176470588 1" />
      </material>
    </visual>
  </link>
  <joint
    name="RARM_A1_X_JOINT"
    type="revolute">
    <origin
      xyz="0 0 0"/>
    <!-- <origin
      xyz="0 0 0"
      rpy="1.5707963267949 -1.5707963267949 0" /> -->
    <parent
      link="RARM_A1_Y" />
    <child
      link="RARM_A1_X" />
    <!-- <axis xyz="0 0 -1" /> -->
    <axis xyz="1 0 0"/>
    <dynamics damping="0.7"/>
    <limit effort="1000.0" lower="-1.91986217719" upper="0.523598775598" velocity="3.14159265359"/>
    <!-- -110  30 -->
  </joint>
  <link
    name="RARM_A2_Z">
    <inertial>
      <origin
        xyz="-0.00507107 -0.00010123 0.04207637"
        rpy="0 0 0" />
      <mass
        value="0.50985428" />
      <inertia
        ixx="0.00085646"
        ixy="-1.028E-05"
        ixz="-7.63E-06"
        iyy="0.00086116"
        iyz="4.477E-05"
        izz="0.00022043" />
    </inertial>
    <visual>
      <origin
        xyz="0 0 0"
        rpy="0 0 0" />
      <geometry>
        <mesh
          filename="package://telexistence_description/meshes_tx09/RARM_A2_Z.STL" />
      </geometry>
      <material
        name="">
        <color
          rgba="0.752941176470588 0.752941176470588 0.752941176470588 1" />
      </material>
    </visual>
  </link>
  <joint
    name="RARM_A2_Z_JOINT"
    type="revolute">
    <origin
      xyz="0 0 -0.284"/>
    <!-- <origin
      xyz="0 -0.284 0"
      rpy="-1.5707963267949 -1.5707963267949 0" /> -->
    <parent
      link="RARM_A1_X" />
    <child
      link="RARM_A2_Z" />
    <!-- <axis xyz="0 0 -1" /> -->
    <axis xyz="0 0 1"/>
    <dynamics damping="0.7"/>
    <limit effort="1000.0" lower="-0.610865238198" upper="2.61799387799" velocity="3.14159265359"/>
    <!-- -35  150 -->
  </joint>
  <link
    name="RARM_A3_Y">
    <inertial>
      <origin
        xyz="-0.011692 0.00114438 -0.07202502"
        rpy="0 0 0" />
      <mass
        value="0.35324853" />
      <inertia
    ixx="0.00135625"
    ixy="-1E-3"
          ixz="-1E-3"
          iyy="0.00132585"
          iyz="-1E-3"
          izz="-1E-3"/>
        <!-- ixx="0.00135625" -->
        <!-- ixy="-6.68E-06"  "7.923E-05" -->
        <!-- ixz="-7.923E-05"  "-6.68E-06" -->
        <!-- iyy="0.00132585"  "0.00034378" -->
        <!-- iyz="-1.874E-05" -->
        <!-- izz="-0.00034378"  "0.00132585" /> -->
    </inertial>
    <visual>
      <origin
        xyz="0 0 0"
        rpy="-1.5707963267949 0 0" />
      <geometry>
        <mesh
          filename="package://telexistence_description/meshes_tx09/RARM_A3_Y.STL" />
      </geometry>
      <material
        name="">
        <color
          rgba="0.752941176470588 0.752941176470588 0.752941176470588 1" />
      </material>
    </visual>
  </link>
  <joint
    name="RARM_A3_Y_JOINT"
    type="revolute">
    <origin
      xyz="0 0 0"/>
    <!-- <origin
      xyz="0 0 0"
      rpy="-1.5707963267949 0 0" /> -->
    <parent
      link="RARM_A2_Z" />
    <child
      link="RARM_A3_Y" />
    <!-- <axis xyz="0 0 1" /> -->
    <axis xyz="0 1 0"/>
    <dynamics damping="0.7"/>
    <limit effort="1000.0" lower="-2.61799387799" upper="0.0" velocity="3.14159265359"/>
    <!-- -150  0 -->
  </joint>
  <link
    name="RARM_A4_Z">
    <inertial>
      <origin
        xyz="-0.000184599890364498 0.000527562297446466 -0.0351283097325996"
        rpy="0 0 0" />
      <mass
        value="0.131998666591159" />
      <inertia
          ixx="0.0001946"
          ixy="-3.6E-07"
          ixz="3.5E-07"
          iyy="-0.00018761"
          iyz="-1.6E-07"
          izz="-0.00011608" />
    </inertial>
    <visual>
      <origin
        xyz="0 0 0"
        rpy="3.14159265359 0 0" />
      <geometry>
        <mesh
          filename="package://telexistence_description/meshes_tx09/RARM_A4_Z.STL" />
      </geometry>
      <material
        name="">
        <color
          rgba="0.752941176470588 0.752941176470588 0.752941176470588 1" />
      </material>
    </visual>
  </link>
  <joint
    name="RARM_A4_Z_JOINT"
    type="revolute">
    <origin
      xyz="0 0 -0.1482"/>
    <!-- <origin
      xyz="0 0.1482 0"
      rpy="-1.5707963267949 0 0" /> -->
    <parent
      link="RARM_A3_Y" />
    <child
      link="RARM_A4_Z" />
    <axis xyz="0 0 1" />
    <!-- <axis xyz="0 0 1"/> -->
    <dynamics damping="0.7"/>
    <limit effort="1000.0" lower="-1.57079632679" upper="1.57079632679" velocity="3.14159265359"/>
    <!-- -90  90 -->
  </joint>
  <link
    name="RARM_A5_Y">
    <inertial>
      <origin
        xyz="0.00431876 -0.00421251 -0.00023267"
        rpy="0 0 0" />
      <mass
        value="0.19557984" />
      <inertia
        ixx="-8.133E-05" 
        ixy="4.54E-06" 
        ixz="2.82E-05"  
        iyy="8.219E-05"  
        iyz="3.52E-06" 
        izz="-5.356E-05"/>
    </inertial>
    <visual>
      <origin
        xyz="0 0 0"
        rpy="-1.57079632679 1.57079632679 0" />
      <geometry>
        <mesh
          filename="package://telexistence_description/meshes_tx09/RARM_A5_Y.STL" />
      </geometry>
      <material
        name="">
        <color
          rgba="0.752941176470588 0.752941176470588 0.752941176470588 1" />
      </material>
    </visual>
  </link>
  <joint
    name="RARM_A5_Y_JOINT"
    type="revolute">
    <origin
      xyz="0 0 -0.1018"/>
<!--     <origin
      xyz="0 0 0.1018"
      rpy="1.5824115027804 -1.5707963267949 0" /> -->
    <parent
      link="RARM_A4_Z" />
    <child
      link="RARM_A5_Y" />
    <!-- <axis xyz="0 0 1" /> -->
    <axis xyz="0 1 0"/>
    <dynamics damping="0.7"/>
    <limit effort="1000.0" lower="-0.349065850399" upper="1.0471975512" velocity="3.14159265359"/>
    <!-- -20  60 -->
  </joint>
  <link
    name="RARM_A5_X">
    <inertial>
      <origin
        xyz="-0.000458398898440855 -0.00439102477974418 -0.0286504469993824"
        rpy="0 0 0" />
      <mass
        value="0.0568166829302141" />
      <inertia
    ixx="-1E-3"
    ixy="1E-3"
          ixz="-1E-3"
          iyy="1E-3"
          iyz="-1E-3"
          izz="1E-3"/>

        <!-- ixx="-3.293E-05"  "4.853E-05" -->
        <!-- ixy="6.2E-07"  "-3.0E-07" -->
        <!-- ixz="-3.0E-07" "2.31E-06" -->
        <!-- iyy="5.565E-05" "3.293E-05" -->
        <!-- iyz="-2.31E-06"  "-6.2E-07" -->
        <!-- izz="4.853E-05"  "5.565E-05" /> -->
    </inertial>
    <visual>
      <origin
        xyz="0 0 0"
        rpy="-1.57079632679 1.57079632679 0" />
      <geometry>
        <mesh
          filename="package://telexistence_description/meshes_tx09/RARM_A5_X_DUMMY_HAND.STL" />
      </geometry>
      <material
        name="">
        <color
          rgba="0.752941176470588 0.752941176470588 0.752941176470588 1" />
      </material>
    </visual>
  </link>
  <joint
    name="RARM_A5_X_JOINT"
    type="revolute">
    <origin
      xyz="0 0 0"/>
<!--     <origin
      xyz="0 0 0"
      rpy="0.0116151759855015 0 0" /> -->
    <parent
      link="RARM_A5_Y" />
    <child
      link="RARM_A5_X" />
    <!-- <axis xyz="0 0 0" /> -->
    <axis xyz="1 0 0"/>
    <dynamics damping="0.7"/>
    <limit effort="1000.0" lower="-0.785398163397" upper="1.3962634016" velocity="3.14159265359"/>
    <!-- -45  80 -->
  </joint>
  <link name="RHAND">
      <visual>
      <origin
        xyz="0 0 0"
        rpy="0 0 0" />
      <geometry>
        <mesh
          filename="package://telexistence_description/meshes_tx09/DUMMY_CYLINDER.STL" scale="0.0002 0.0002 0.0002"/>
      </geometry>
      <material
        name="">
        <color
          rgba="0.75 0.75 0.75 1" />
      </material>
    </visual>
  </link>
  <joint name="RHAND_JOINT" type="fixed">
    <origin xyz="0 0.1 -0.16" />
    <parent link="RARM_A5_X" />
    <child link="RHAND" />
  </joint>
  <link
    name="NECK_C2_Y">
    <inertial>
      <origin
        xyz="-0.0306698401051842 -0.000262564887227673 0.0442792078828799 "
        rpy="0 0 0" />
      <mass
        value="0.117145000090087" />
      <inertia
        ixx="7.593E-05"  
        ixy="-1.85E-06" 
        ixz="-5.22E-05" 
        iyy="0.00016357" 
        iyz="2.44E-06" 
        izz="0.00014294"/>
    </inertial>
    <visual>
      <origin
        xyz="0 0 0"
        rpy="-1.5707963267949 -1.5707963267949 0" />
      <geometry>
        <mesh
          filename="package://telexistence_description/meshes_tx09/NECK_C2_Y.STL" />
      </geometry>
      <material
        name="">
        <color
          rgba="0.752941176470588 0.752941176470588 0.752941176470588 1" />
      </material>
    </visual>
  </link>
  <joint
    name="NECK_C2_Y_JOINT"
    type="revolute">
    <origin
      xyz="0 0 0.3585" />
    <!-- <origin
      xyz="0.3585 0 0"
      rpy="0 0 0" /> -->
    <parent
      link="TRUNK_S2_Y" />
    <child
      link="NECK_C2_Y" />
    <!-- <axis xyz="0 0 1" /> -->
    <axis xyz="0 1 0"/>
    <dynamics damping="0.7"/>
    <limit effort="1000.0" lower="-0.261799387799" upper="0.261799387799" velocity="0.523598775598"/>
    <!-- -15  15 -->
  </joint>
  <link
    name="NECK_C3_X">
    <inertial>
      <origin
        xyz="-0.06153506 -0.00120521 -0.00059477"
        rpy="0 0 0" />
      <mass
        value="0.06694393" />
      <inertia
    ixx="1E-3"
    ixy="1E-3"
          ixz="1E-3"
          iyy="1E-3"
          iyz="1E-3"
          izz="1E-3"/>

        <!-- ixx="2.105E-05" "4.629E-05" -->
        <!-- ixy="9.8E-07" "1.01E-06" -->
        <!-- ixz="1.126E-05"  "9.8E-07" -->
        <!-- iyy="4.629E-05" "3.348E-05" -->
        <!-- iyz= "9.8E-07" "1.126E-05" -->
        <!-- izz="3.348E-05" "2.105E-05" /> -->
    </inertial>
    <visual>
      <origin
        xyz="0 0 0"
        rpy="1.5707963267949 0 1.5707963267949" />
      <geometry>
        <mesh
          filename="package://telexistence_description/meshes_tx09/NECK_C3_X.STL" />
      </geometry>
      <material
        name="">
        <color
          rgba="0.752941176470588 0.752941176470588 0.752941176470588 1" />
      </material>
    </visual>
  </link>
  <joint
    name="NECK_C3_X_JOINT"
    type="revolute">
    <origin
      xyz="0 0 0.0950000000000001"/>
    <!-- <origin
      xyz="0.0950000000000001 0 0"
      rpy="-1.5707963267949 -1.5707963267949 0" /> -->
    <parent
      link="NECK_C2_Y" />
    <child
      link="NECK_C3_X" />
    <!-- <axis xyz="0 0 -1" /> -->
    <axis xyz="1 0 0"/>
    <dynamics damping="0.7"/>
    <limit effort="1000.0" lower="-0.523598775598" upper="0.523598775598" velocity="1.57079632679"/>
    <!-- -30  30 -->
  </joint>
  <link
    name="NECK_C4_Z">
    <inertial>
      <origin
        xyz="-0.02562492 0.01638554 0.04655119"
        rpy="0 0 0" />
      <mass
        value="0.06543055" />
      <inertia
    ixx="1E-3"
    ixy="-1E-3"
          ixz="-1E-3"
          iyy="1E-3"
          iyz="1E-3"
          izz="1E-3"/>
        <!-- ixx="8.051E-05" -->
        <!-- ixy="-1.228E-05" -->
        <!-- ixz="-1.51E-06" -->
        <!-- iyy="1.986E-05" -->
        <!-- iyz="3.99E-06" -->
        <!-- izz="8.301E-05" /> -->
    </inertial>
    <visual>
      <origin
        xyz="0 0 0"
        rpy="0 0 0" />
      <geometry>
        <mesh
          filename="package://telexistence_description/meshes_tx09/NECK_C4_Z.STL" />
      </geometry>
      <material
        name="">
        <color
          rgba="0.752941176470588 0.752941176470588 0.752941176470588 1" />
      </material>
    </visual>
  </link>
  <joint
    name="NECK_C4_Z_JOINT"
    type="revolute">
    <origin
      xyz="0 0 0"/>
<!--     <origin
      xyz="0 0 0"
      rpy="1.5707963267949 -1.5707963267949 3.1415926535" /> -->
    <parent
      link="NECK_C3_X" />
    <child
      link="NECK_C4_Z" />
    <!-- <axis xyz="0 0 -1" /> -->
    <axis xyz="0 0 1"/>
    <dynamics damping="0.7"/>
    <limit effort="1000.0" lower="-1.91986217719" upper="1.91986217719" velocity="4.36332312999"/>
    <!-- -110  110 -->
  </joint>
  <link
    name="NECK_C4_Y">
    <inertial>
      <origin
        xyz="-0.0261774676395275 0.000661529399776822 -0.00242894468997545"
        rpy="0 0 0" />
      <mass
        value="2.99006410411172" />
      <inertia
        ixx="0.01194396"
        ixy="3.54E-06" 
        ixz="-0.00132070" 
        iyy="0.00751256"  
        iyz="2.554E-05"
        izz="-0.01212657"/>
    </inertial>
    <visual>
      <origin
        xyz="0 0 0"
        rpy="-1.5707963267949 0 0" />
      <geometry>
        <mesh
          filename="package://telexistence_description/meshes_tx09/NECK_C4_Y.STL" />
      </geometry>
      <material
        name="">
        <color
          rgba="0.752941176470588 0.752941176470588 0.752941176470588 1" />
      </material>
    </visual>
  </link>
  <joint
    name="NECK_C4_Y_JOINT"
    type="revolute">
    <origin
      xyz="0 0 0.0599999999999997"/>
    <!-- <origin
      xyz="0 0 0.0599999999999997"
      rpy="-1.5707963267949 0 0" /> -->
    <parent
      link="NECK_C4_Z" />
    <child
      link="NECK_C4_Y" />
    <!-- <axis xyz="0 0 1" /> -->
    <axis xyz="0 1 0"/>
    <dynamics damping="0.7"/>
    <limit effort="1000.0" lower="-0.523598775598" upper="0.785398163397" velocity="3.14159265359"/>
    <!-- -30  45 -->
  </joint>
</robot>
